Iteration strategies
…
n_tests <- 100
p_vals <- rep(NA, n_tests)
for(i in 1:n_tests){
  x <- asd %>% filter(group == 'ASD') %>% pull(i + 1)
  y <- asd %>% filter(group == 'TD') %>% pull(i + 1)
  p_vals[i] <- t.test(x, y, var.equal = F)$p.value
}

To line these up with the proteins they correspond to, it’s necessary to keep track of the indexing carefully. In this case, the indexing corresponds to the order of columns. So we could create a data frame like so:

tibble(protein = colnames(asd)[2:(n_tests + 1)],
       p = p_vals)

# A tibble: 100 × 2
   protein        p
   <chr>      <dbl>
 1 CHIP     0.851  
 2 CEBPB    0.0322 
 3 NSE      0.350  
 4 PIAS4    0.104  
 5 IL-10 Ra 0.0232 
 6 STAT3    0.00183
 7 IRF1     0.592  
 8 c-Jun    0.0351 
 9 Mcl-1    0.999  
10 OAS1     0.942  
# … with 90 more rows
…
# convert to a list
asd_list <- asd %>% 
  select(1:(n_tests + 1)) %>%
  pivot_longer(cols = -group,
               names_to = 'protein',
               values_to = 'level') %>%
  group_by(protein) %>%
  group_split()

# first entry in list
asd_list[[1]]

# A tibble: 154 × 3
   group protein                     level
   <chr> <chr>                       <dbl>
 1 ASD   14-3-3 protein beta/alpha -0.124 
 2 ASD   14-3-3 protein beta/alpha  0.487 
 3 ASD   14-3-3 protein beta/alpha -0.801 
 4 ASD   14-3-3 protein beta/alpha  2.73  
 5 ASD   14-3-3 protein beta/alpha  1.24  
 6 ASD   14-3-3 protein beta/alpha  0.250 
 7 ASD   14-3-3 protein beta/alpha  0.932 
 8 ASD   14-3-3 protein beta/alpha  0.0873
 9 ASD   14-3-3 protein beta/alpha  0.213 
10 ASD   14-3-3 protein beta/alpha  0.157 
# … with 144 more rows
…
The data column consists of data frames, one per protein, containing the variables group and level :

asd_nested %>%
  slice(1L) %>%
  pull(data)

[[1]]
# A tibble: 154 × 2
     level group
     <dbl> <chr>
 1  0.335  ASD  
 2 -0.0715 ASD  
 3 -0.406  ASD  
 4 -0.102  ASD  
 5 -0.395  ASD  
 6 -0.126  ASD  
 7  0.486  ASD  
 8 -0.990  ASD  
 9 -0.108  ASD  
10  0.485  ASD  
# … with 144 more rows
…
