Measuring classification accuracy
…
Copy-paste the code above in your script and execute to fit the logistic regression model.

Confer with your neighbor and interpret one of the parameters of your choosing.

By interpret, we mean: what is the estimated change in P(ASD) associated with a +1SD change in log protein level?

Predictions

The modelr package makes it relatively easy to compute predictions for a wide range of model objects in R. Its pipe-friendly add_predictions(.df, .mdl, type) function will add a column of predictions of type type using model .mdl to data frame .df .

# compute predictions on the test set
testing(partitions) %>%
  add_predictions(fit)

# A tibble: 31 × 7
       DERM    RELT    IgD     PTN  FSTL1 class    pred
      <dbl>   <dbl>  <dbl>   <dbl>  <dbl> <lgl>   <dbl>
 1  0.140   -0.586  -1.53  -1.72   -1.96  TRUE   2.20  
 2 -0.276    0.410   0.454 -0.0375 -1.41  TRUE   0.108 
 3  0.927   -1.12    1.15  -0.290   0.190 TRUE  -0.925 
 4 -0.00743 -0.319  -0.762 -1.27   -1.05  TRUE   1.23  
 5 -0.484   -0.612  -0.625 -0.990  -1.16  TRUE   1.53  
 6  0.111   -0.489  -1.15   0.0483 -1.12  TRUE   1.21  
 7 -0.972   -0.535   0.502 -0.594  -0.427 TRUE   0.687 
 8 -0.344    0.0337  0.998 -2.00   -0.309 TRUE   0.0179
 9 -1.13    -0.385  -0.929  0.892  -0.597 TRUE   1.38  
10  0.398    0.325  -1.17  -0.0114 -0.415 TRUE   0.450 
# … with 21 more rows
…
Extras

If there is extra time, or you’re interested in exploring a bit further on your own, read on.

ROC curves

The yardstick package also supplies functions for computing class probability metrics based on the estimated class probabilities rather than the estimated classes. ROC curves and AUROC are examples.

roc_curve() will find all unique probability thresholds and, for each threshold, calculate sensitivity and specificity:

pred_df %>%
  roc_curve(truth = group, estimate = pred)

# A tibble: 33 × 3
   .threshold specificity sensitivity
        <dbl>       <dbl>       <dbl>
 1  -Inf           0            1    
 2     0.0664      0            1    
 3     0.117       0            0.938
 4     0.158       0            0.875
 5     0.186       0.0667       0.875
 6     0.191       0.0667       0.812
 7     0.197       0.0667       0.75 
 8     0.262       0.0667       0.688
 9     0.284       0.0667       0.625
10     0.299       0.133        0.625
# … with 23 more rows
…
