Tidyverse basics
…
background <- paste(url, 'background-clean.csv', sep = '') %>%
    read_csv()

interest <- paste(url, 'interest-clean.csv', sep = '') %>%
    read_csv()

metadata <- paste(url, 'survey-metadata.csv', sep = '') %>%
    read_csv()

You can view the data in one of two ways:

# print the data frame for inspection in the console
background

# A tibble: 59 × 30
   response.id prog.prof prog.comf math.prof math.comf stat.prof stat.comf
         <dbl> <chr>         <dbl> <chr>         <dbl> <chr>         <dbl>
 1           1 Adv               5 Int               3 Adv               4
 2           2 Int               5 Int               3 Int               4
 3           3 Int               3 Int               3 Int               4
 4           4 Int               3 Int               3 Int               3
 5           5 Int               3 Adv               4 Int               3
 6           7 Int               3 Adv               4 Int               3
 7           8 Adv               4 Adv               5 Adv               4
 8           9 Int               3 Int               3 Int               3
 9          10 Int               4 Int               3 Adv               4
10          12 Int               5 Int               4 Int               4
# … with 49 more rows, and 23 more variables: updv.num <chr>, dom <chr>,
#   consent <chr>, PSTAT100 <chr>, `PSTAT120A-B` <chr>, PSTAT126 <chr>,
#   PSTAT127 <chr>, PSTAT134 <chr>, CS9 <chr>, PSTAT131 <chr>, PSTAT174 <chr>,
#   LING104 <chr>, LING105 <chr>, PSTAT115 <chr>, PSTAT122 <chr>,
#   `PSTAT160A-B` <chr>, CS16 <chr>, `CS5A-B` <chr>, POLS15 <chr>,
#   LING110 <chr>, `CS130A-B` <chr>, `CS165A-B` <chr>, rsrch <lgl>
…
Core verbs

Action

For each verb listed below, copy the code chunk into your script and execute.

Go through the list with your neighbor and check your understanding by describing what the code example accomplishes.

filter – filter the rows of a data frame according to a condition and return a subset of rows meeting that condition

# filter rows
background %>%
  filter(math.comf > 3)

# A tibble: 37 × 30
   response.id prog.prof prog.comf math.prof math.comf stat.prof stat.comf
         <dbl> <chr>         <dbl> <chr>         <dbl> <chr>         <dbl>
 1           5 Int               3 Adv               4 Int               3
 2           7 Int               3 Adv               4 Int               3
 3           8 Adv               4 Adv               5 Adv               4
 4          12 Int               5 Int               4 Int               4
 5          13 Int               4 Adv               4 Adv               4
 6          15 Adv               3 Adv               4 Adv               4
 7          17 Int               3 Int               4 Int               4
 8          18 Int               4 Adv               5 Adv               5
 9          19 Adv               5 Adv               5 Adv               5
10          20 Adv               4 Int               4 Adv               5
# … with 27 more rows, and 23 more variables: updv.num <chr>, dom <chr>,
#   consent <chr>, PSTAT100 <chr>, `PSTAT120A-B` <chr>, PSTAT126 <chr>,
#   PSTAT127 <chr>, PSTAT134 <chr>, CS9 <chr>, PSTAT131 <chr>, PSTAT174 <chr>,
#   LING104 <chr>, LING105 <chr>, PSTAT115 <chr>, PSTAT122 <chr>,
#   `PSTAT160A-B` <chr>, CS16 <chr>, `CS5A-B` <chr>, POLS15 <chr>,
#   LING110 <chr>, `CS130A-B` <chr>, `CS165A-B` <chr>, rsrch <lgl>

select – select a subset of columns from a data frame

# select a column
background %>%
  select(math.comf)

# A tibble: 59 × 1
   math.comf
       <dbl>
 1         3
 2         3
 3         3
 4         3
 5         4
 6         4
 7         5
 8         3
 9         3
10         4
# … with 49 more rows
…
 [1] FALSE  TRUE  TRUE  TRUE FALSE  TRUE  TRUE  TRUE FALSE  TRUE FALSE FALSE
[13] FALSE FALSE FALSE  TRUE  TRUE  TRUE  TRUE FALSE FALSE  TRUE FALSE  TRUE
[25] FALSE  TRUE  TRUE  TRUE  TRUE FALSE FALSE FALSE  TRUE FALSE FALSE FALSE
[37] FALSE FALSE  TRUE  TRUE  TRUE  TRUE  TRUE  TRUE  TRUE FALSE FALSE FALSE
[49]  TRUE  TRUE  TRUE  TRUE  TRUE FALSE FALSE  TRUE FALSE  TRUE FALSE

mutate – define a new column as a function of existing columns

# define a new variable
background %>%
  mutate(avg.comf = (math.comf + prog.comf + stat.comf)/3)

# A tibble: 59 × 31
   response.id prog.prof prog.comf math.prof math.comf stat.prof stat.comf
         <dbl> <chr>         <dbl> <chr>         <dbl> <chr>         <dbl>
 1           1 Adv               5 Int               3 Adv               4
 2           2 Int               5 Int               3 Int               4
 3           3 Int               3 Int               3 Int               4
 4           4 Int               3 Int               3 Int               3
 5           5 Int               3 Adv               4 Int               3
 6           7 Int               3 Adv               4 Int               3
 7           8 Adv               4 Adv               5 Adv               4
 8           9 Int               3 Int               3 Int               3
 9          10 Int               4 Int               3 Adv               4
10          12 Int               5 Int               4 Int               4
# … with 49 more rows, and 24 more variables: updv.num <chr>, dom <chr>,
#   consent <chr>, PSTAT100 <chr>, `PSTAT120A-B` <chr>, PSTAT126 <chr>,
#   PSTAT127 <chr>, PSTAT134 <chr>, CS9 <chr>, PSTAT131 <chr>, PSTAT174 <chr>,
#   LING104 <chr>, LING105 <chr>, PSTAT115 <chr>, PSTAT122 <chr>,
#   `PSTAT160A-B` <chr>, CS16 <chr>, `CS5A-B` <chr>, POLS15 <chr>,
#   LING110 <chr>, `CS130A-B` <chr>, `CS165A-B` <chr>, rsrch <lgl>,
#   avg.comf <dbl>

These operations can be chained together, for example:

# sequence of verbs
background %>%
  filter(stat.prof == 'Adv') %>%
  mutate(avg.comf = (math.comf + prog.comf + stat.comf)/3) %>%
  select(avg.comf, rsrch) 

# A tibble: 36 × 2
   avg.comf rsrch
      <dbl> <lgl>
 1     4    FALSE
 2     4.33 TRUE 
 3     3.67 FALSE
 4     4    FALSE
 5     3.67 FALSE
 6     4.67 TRUE 
 7     5    TRUE 
 8     4.33 TRUE 
 9     4.33 TRUE 
10     4    TRUE 
# … with 26 more rows
…
# A tibble: 1 × 3
  prog.comf math.comf stat.comf
      <dbl>     <dbl>     <dbl>
1      3.97      3.85      4.08

Grouped summaries are summaries computed separately among subsets of observations. To define a grouping structure using an existing column, use group_by() . Notice the ‘groups’ attribute printed with the output.

# create a grouping
background %>%
  group_by(stat.prof)

# A tibble: 59 × 30
# Groups:   stat.prof [3]
   response.id prog.prof prog.comf math.prof math.comf stat.prof stat.comf
         <dbl> <chr>         <dbl> <chr>         <dbl> <chr>         <dbl>
 1           1 Adv               5 Int               3 Adv               4
 2           2 Int               5 Int               3 Int               4
 3           3 Int               3 Int               3 Int               4
 4           4 Int               3 Int               3 Int               3
 5           5 Int               3 Adv               4 Int               3
 6           7 Int               3 Adv               4 Int               3
 7           8 Adv               4 Adv               5 Adv               4
 8           9 Int               3 Int               3 Int               3
 9          10 Int               4 Int               3 Adv               4
10          12 Int               5 Int               4 Int               4
# … with 49 more rows, and 23 more variables: updv.num <chr>, dom <chr>,
#   consent <chr>, PSTAT100 <chr>, `PSTAT120A-B` <chr>, PSTAT126 <chr>,
#   PSTAT127 <chr>, PSTAT134 <chr>, CS9 <chr>, PSTAT131 <chr>, PSTAT174 <chr>,
#   LING104 <chr>, LING105 <chr>, PSTAT115 <chr>, PSTAT122 <chr>,
#   `PSTAT160A-B` <chr>, CS16 <chr>, `CS5A-B` <chr>, POLS15 <chr>,
#   LING110 <chr>, `CS130A-B` <chr>, `CS165A-B` <chr>, rsrch <lgl>
…
