Multinomial logistic regression
…
  PSTAT197A/CMPSC190DD Fall 2023

Dimension reduction

From last time

Last time we ended having constructed a TF-IDF document term matrix for the claims data.

\(n = 552\) observations

\(p = 15,868\) variables (word tokens)

binary (rather than multiclass) labels

# A tibble: 552 × 15,870
   .id    bclass    adams afternoon  agent android    app arkansas arrest arrive
   <chr>  <fct>     <dbl>     <dbl>  <dbl>   <dbl>  <dbl>    <dbl>  <dbl>  <dbl>
 1 url1   relevant 0.0692    0.0300 0.0365  0.0450 0.0330   0.0390 0.0140 0.0305
 2 url10  irrelev… 0         0      0       0      0        0      0      0     
 3 url100 irrelev… 0         0      0       0      0        0      0      0     
 4 url101 relevant 0         0      0       0      0        0      0      0     
 5 url102 relevant 0         0      0       0      0        0      0      0     
 6 url105 relevant 0         0      0       0      0        0      0      0     
 7 url106 irrelev… 0         0      0       0      0        0      0      0     
 8 url107 irrelev… 0         0      0       0      0        0      0      0     
 9 url108 relevant 0         0      0       0      0        0      0      0     
10 url109 irrelev… 0         0      0       0      0        0      0      0     
# ℹ 542 more rows
# ℹ 15,860 more variables: assist <dbl>, attic <dbl>, barricade <dbl>,
#   block <dbl>, blytheville <dbl>, burn <dbl>, captain <dbl>, catch <dbl>,
#   check <dbl>, chemical <dbl>, copyright <dbl>, county <dbl>, custody <dbl>,
#   dehydration <dbl>, demand <dbl>, department <dbl>, desktop <dbl>,
#   device <dbl>, dispute <dbl>, division <dbl>, drug <dbl>, enter <dbl>,
#   exit <dbl>, family <dbl>, federal <dbl>, fire <dbl>, force <dbl>, …
…
time_prcomp - time_ssvd

Time difference of 16.17857 secs

Obtaining projections

For today, we’ll use a function I’ve written to obtain principal components. It’s basically a wrapper around sparsesvd().

The following will return the data projected onto a subspace in which it retains at least .prop percent of the total variance.

proj_out <- projection_fn(claims_dtm, .prop = 0.7)

proj_out$data

# A tibble: 552 × 63
        pc1      pc2     pc3      pc4     pc5      pc6      pc7      pc8     pc9
      <dbl>    <dbl>   <dbl>    <dbl>   <dbl>    <dbl>    <dbl>    <dbl>   <dbl>
 1  5.24e-6 -7.68e-5 0.0135  -2.26e-4 0.00137 -0.00586  0.00255 -4.79e-3  0.0292
 2  1.03e-5 -3.51e-4 0.00205 -2.46e-2 0.0627  -0.00335  0.00468 -1.91e-3  0.0661
 3  1.00e-5 -6.56e-5 0.00281 -2.10e-4 0.00532 -0.00970  0.00158 -2.10e-3  0.0392
 4  9.92e-6 -1.74e-3 0.00527 -1.32e-3 0.00296 -0.0821   0.297    1.48e-2  0.0614
 5  3.90e-6 -7.43e-5 0.00575 -4.68e-4 0.00245 -0.00441  0.00891 -1.97e-3  0.0209
 6  6.65e-6 -1.61e-3 0.0546  -8.38e-4 0.00198 -0.0342   0.119   -1.18e-2  0.0699
 7  4.95e-6 -1.74e-4 0.00415 -6.60e-4 0.00170 -0.00907  0.0245  -2.75e-3  0.0600
 8  7.46e-6 -1.41e-4 0.00101 -2.58e-4 0.00130 -0.00273  0.00336 -8.41e-4  0.0267
 9  2.01e-5 -4.44e-4 0.00172 -5.78e-4 0.00157 -0.0133   0.0397   3.82e-4  0.0609
10  6.76e-7 -6.03e-5 0.00288 -9.14e-4 0.00397 -2.05    -0.537    2.95e-2 -0.0998
# ℹ 542 more rows
# ℹ 54 more variables: pc10 <dbl>, pc11 <dbl>, pc12 <dbl>, pc13 <dbl>,
#   pc14 <dbl>, pc15 <dbl>, pc16 <dbl>, pc17 <dbl>, pc18 <dbl>, pc19 <dbl>,
#   pc20 <dbl>, pc21 <dbl>, pc22 <dbl>, pc23 <dbl>, pc24 <dbl>, pc25 <dbl>,
#   pc26 <dbl>, pc27 <dbl>, pc28 <dbl>, pc29 <dbl>, pc30 <dbl>, pc31 <dbl>,
#   pc32 <dbl>, pc33 <dbl>, pc34 <dbl>, pc35 <dbl>, pc36 <dbl>, pc37 <dbl>,
#   pc38 <dbl>, pc39 <dbl>, pc40 <dbl>, pc41 <dbl>, pc42 <dbl>, pc43 <dbl>, …
…
Activity 3 (10 min)

Follow instructions to fit a multinomial model to the claims data.

Compute predictions and evaluate accuracy.

Results

Probabilities
Cross-tabulation
Some error metrics

# A tibble: 111 × 5
   irrelevant physical fatality unlawful    other
        <dbl>    <dbl>    <dbl>    <dbl>    <dbl>
 1    0.758    0.0509   0.0639  0.0822   0.0454  
 2    0.206    0.0254   0.728   0.0257   0.0149  
 3    0.564    0.0680   0.244   0.0715   0.0526  
 4    0.206    0.0254   0.728   0.0257   0.0149  
 5    0.524    0.260    0.0303  0.137    0.0490  
 6    0.755    0.0505   0.0652  0.0836   0.0460  
 7    0.251    0.0304   0.669   0.0235   0.0257  
 8    0.121    0.839    0.0184  0.00427  0.0177  
 9    0.00946  0.00355  0.00326 0.978    0.00579 
10    0.0107   0.00248  0.985   0.000806 0.000859
# ℹ 101 more rows
…
