Text to data: basic NLP
…
locomotion <- c('run', 'running', 'ran', 
                'boating', 'boat', 
                'swim', 'swam', 'swimming', 'swum') 

locomotion %>% lemmatize_words()

[1] "run"  "run"  "run"  "boat" "boat" "swim" "swim" "swim" "swim"

Also works by pattern matching and replacement using a source dictionary.

tidytext::unnest_tokens()

The tidytext package [docs] contains wrappers around tokenizers and other functions for use in tidyverse-style programming.

# A tibble: 36 × 3
   doc        token   token.lem
   <chr>      <chr>   <chr>    
 1 invitation dreamer dreamer  
 2 invitation come    come     
 3 invitation dreamer dreamer  
 4 invitation wisher  wisher   
 5 invitation liar    liar     
 6 invitation hope    hope     
 7 invitation er      er       
 8 invitation pray    pray     
 9 invitation er      er       
10 invitation magic   magic    
# ℹ 26 more rows
…
