Activity: multinomial logistic regression
…
# path to activity files on repo
url <- 'https://raw.githubusercontent.com/pstat197/pstat197a/main/materials/activities/data/'

# load a few functions for the activity
source(paste(url, 'projection-functions.R', sep = ''))

# read in data
claims <- paste(url, 'claims-multi-tfidf.csv', sep = '') %>%
  read_csv()

# preview
claims

# A tibble: 552 × 15,871
   mclass    .id   bclass  adams afternoon  agent android    app arkansas arrest
   <chr>     <chr> <chr>   <dbl>     <dbl>  <dbl>   <dbl>  <dbl>    <dbl>  <dbl>
 1 unlawful  url1  relev… 0.0692    0.0300 0.0365  0.0450 0.0330   0.0390 0.0140
 2 irreleva… url3  irrel… 0         0      0       0      0        0      0     
 3 other     url4  relev… 0         0      0       0      0        0      0     
 4 fatality  url5  relev… 0         0      0       0      0        0      0     
 5 irreleva… url7  irrel… 0         0      0       0      0        0      0.0107
 6 fatality  url8  relev… 0         0      0       0      0        0      0     
 7 irreleva… url9  irrel… 0         0      0       0      0        0      0     
 8 irreleva… url10 irrel… 0         0      0       0      0        0      0     
 9 unlawful  url11 relev… 0         0      0       0      0        0      0.0716
10 unlawful  url12 relev… 0         0      0       0      0        0      0.0161
# … with 542 more rows, and 15,861 more variables: arrive <dbl>, assist <dbl>,
#   attic <dbl>, barricade <dbl>, block <dbl>, blytheville <dbl>, burn <dbl>,
#   captain <dbl>, catch <dbl>, check <dbl>, chemical <dbl>, copyright <dbl>,
#   county <dbl>, custody <dbl>, dehydration <dbl>, demand <dbl>,
#   department <dbl>, desktop <dbl>, device <dbl>, dispute <dbl>,
#   division <dbl>, drug <dbl>, enter <dbl>, exit <dbl>, family <dbl>,
#   federal <dbl>, fire <dbl>, force <dbl>, gas <dbl>, gray <dbl>, …
…
